4 Geocentric Model | Statistical Rethinking Second Edition
…
4.3 Gaussian model of height

クンサン族の身長データでモデリングを行う。

データは、Howellらが収集したデータ。身長は18歳以下では年齢と強く相関するので、ひとまず18歳以上を考える。

data(Howell1)

(d <- as_tibble(Howell1))

## # A tibble: 544 × 4
##    height weight   age  male
##     <dbl>  <dbl> <dbl> <int>
##  1   152.   47.8    63     1
##  2   140.   36.5    63     0
##  3   137.   31.9    65     0
##  4   157.   53.0    41     1
##  5   145.   41.3    51     0
##  6   164.   63.0    35     1
##  7   149.   38.2    32     0
##  8   169.   55.5    27     1
##  9   148.   34.9    19     0
## 10   165.   54.5    54     1
## # … with 534 more rows
…
4.6 Curves from lines

多項回帰やB-スプラインによって曲線回帰する方法を学ぶ。

4.6.1 Polynomial regression

クンサン属の18歳以下も含めた身長・体重データを見てみると、曲線を描いていることが分かる。

(d)

## # A tibble: 544 × 4
##    height weight   age  male
##     <dbl>  <dbl> <dbl> <int>
##  1   152.   47.8    63     1
##  2   140.   36.5    63     0
##  3   137.   31.9    65     0
##  4   157.   53.0    41     1
##  5   145.   41.3    51     0
##  6   164.   63.0    35     1
##  7   149.   38.2    32     0
##  8   169.   55.5    27     1
##  9   148.   34.9    19     0
## 10   165.   54.5    54     1
## # … with 534 more rows
…
