11 God Spiked the Integers | Statistical Rethinking Second Edition
…
##修道院B架空データ
num_weeks <- 10
y_new     <- rpois(num_weeks, lambda = 0.5 * 7)

(
  d5 <- 
  tibble(y  = c(y, y_new), 
         days= rep(c(1, 7), times = c(num_days, num_weeks)),
         monastery = rep(c("A","B"), 
                         times = c(num_days, num_weeks)))%>%
  mutate(log_days = log(days))
)

## # A tibble: 80 × 4
##        y  days monastery log_days
##    <int> <dbl> <chr>        <dbl>
##  1     1     1 A                0
##  2     0     1 A                0
##  3     1     1 A                0
##  4     0     1 A                0
##  5     0     1 A                0
##  6     4     1 A                0
##  7     0     1 A                0
##  8     1     1 A                0
##  9     3     1 A                0
## 10     0     1 A                0
## # … with 70 more rows
…
