3 Sampling the Imaginary | Statistical Rethinking Second Edition
…
地球儀の例について、事後確率を算出する。

9回中6回地表にコインが落ちたときを考え、grid-approximationを行う。

set.seed(100)
n <- 1000
n_success <- 6
n_trials <- 9

(d <- tibble(p_grid = seq(0,1,length.out =n),
            prior = 1) %>%
  mutate(likelihood = dbinom(n_success,n_trials,prob=p_grid),
         posterior = likelihood*prior/sum(likelihood*prior)))

## # A tibble: 1,000 × 4
##     p_grid prior likelihood posterior
##      <dbl> <dbl>      <dbl>     <dbl>
##  1 0           1   0         0       
##  2 0.00100     1   8.43e-17  8.43e-19
##  3 0.00200     1   5.38e-15  5.38e-17
##  4 0.00300     1   6.11e-14  6.11e-16
##  5 0.00400     1   3.42e-13  3.42e-15
##  6 0.00501     1   1.30e-12  1.30e-14
##  7 0.00601     1   3.87e-12  3.88e-14
##  8 0.00701     1   9.73e-12  9.74e-14
##  9 0.00801     1   2.16e-11  2.16e-13
## 10 0.00901     1   4.37e-11  4.38e-13
## # … with 990 more rows
…
