6 The Haunted DAG & the Causal Terror | Statistical Rethinking Second Edition
…
posterior_summary(b6H5_2) %>% 
  round(2) %>% 
  data.frame() %>% 
  rownames_to_column(var = "parameter") %>% 
  as_tibble()

## # A tibble: 37 × 5
##    parameter            Estimate Est.Error  Q2.5 Q97.5
##    <chr>                   <dbl>     <dbl> <dbl> <dbl>
##  1 b_Intercept              0         0.09 -0.17  0.18
##  2 b_avgfood                0.46      0.2   0.07  0.84
##  3 b_groupsize             -0.55      0.2  -0.93 -0.16
##  4 sd_group__Intercept      0.18      0.12  0.01  0.44
##  5 sigma                    0.95      0.07  0.83  1.09
##  6 r_group[1,Intercept]    -0.04      0.2  -0.5   0.35
##  7 r_group[2,Intercept]     0.06      0.2  -0.29  0.53
##  8 r_group[3,Intercept]    -0.02      0.2  -0.48  0.38
##  9 r_group[4,Intercept]    -0.02      0.19 -0.46  0.38
## 10 r_group[5,Intercept]     0.08      0.2  -0.27  0.59
## # … with 27 more rows
